\relax 
\providecommand\zref@newlabel[2]{}
\providecommand*\new@tpo@label[2]{}
\catcode `:\active 
\catcode `;\active 
\catcode `!\active 
\catcode `?\active 
\babel@aux{french}{}
\@writefile{toc}{\contentsline {section}{\numberline {1}Objectif du logiciel}{1}}
\@writefile{toc}{\contentsline {subsection}{\numberline {1.1}Cahier des charges}{1}}
\@writefile{toc}{\contentsline {paragraph}{\nonumberline Remarque.}{1}}
\@writefile{toc}{\contentsline {subsection}{\numberline {1.2}Description des formats}{1}}
\newlabel{listing:fasta}{{1}{1}}
\@writefile{lol}{\contentsline {lstlisting}{\numberline {1}Extrait du fichier mysterious\_perfect\_reads.fasta}{1}}
\pgfsyspdfmark {pgfid1}{5873801}{14117540}
\@writefile{toc}{\contentsline {section}{\numberline {2}Vue g\IeC {\'e}n\IeC {\'e}rale du fonctionnement}{2}}
\@writefile{toc}{\contentsline {subsection}{\numberline {2.1}Compressor}{2}}
\@writefile{toc}{\contentsline {subsection}{\numberline {2.2}Uncompressor}{2}}
\@writefile{toc}{\contentsline {subsection}{\numberline {2.3}Les autres classes}{3}}
\@writefile{toc}{\contentsline {paragraph}{\nonumberline BloomFilter.}{3}}
\@writefile{toc}{\contentsline {paragraph}{\nonumberline Comparator.}{3}}
