\relax 
\providecommand\zref@newlabel[2]{}
\providecommand*\new@tpo@label[2]{}
\catcode `:\active 
\catcode `;\active 
\catcode `!\active 
\catcode `?\active 
\babel@aux{french}{}
\@writefile{toc}{\contentsline {section}{\numberline {1}Introduction}{1}}
\@writefile{toc}{\contentsline {subsection}{\numberline {1.1}Choix algorithmiques}{1}}
\@writefile{toc}{\contentsline {section}{\numberline {2}Cadre d'utilisation}{1}}
\@writefile{toc}{\contentsline {subsection}{\numberline {2.1}Lancer le programme}{1}}
\pgfsyspdfmark {pgfid1}{5873801}{11657727}
\newlabel{lst:exampleUse}{{1}{2}}
\@writefile{lol}{\contentsline {lstlisting}{\numberline {1}Exemple d'utilisation de la commande}{2}}
\pgfsyspdfmark {pgfid2}{5873801}{39094257}
\@writefile{toc}{\contentsline {subsection}{\numberline {2.2}R\IeC {\'e}sultats de l'algorithme}{2}}
\@writefile{toc}{\contentsline {section}{\numberline {3}\IeC {\'E}valuation des performances}{2}}
\@writefile{toc}{\contentsline {subsection}{\numberline {3.1}Variation en fonction de $k$ avec $m$ fix\IeC {\'e}}{2}}
\@writefile{toc}{\contentsline {subsubsection}{\numberline {3.1.1}Tr\IeC {\`e}s petite valeur de $m$}{3}}
\@writefile{lof}{\contentsline {figure}{\numberline {1}{\ignorespaces Variation de la taille des fichiers}}{3}}
\newlabel{fig:toutPetit}{{1}{3}}
\@writefile{toc}{\contentsline {subsubsection}{\numberline {3.1.2}Tr\IeC {\`e}s grande valeur de $m$}{3}}
\@writefile{lof}{\contentsline {figure}{\numberline {2}{\ignorespaces Variation de la taille des fichiers}}{4}}
\newlabel{fig:toutPetit2}{{2}{4}}
\@writefile{toc}{\contentsline {subsubsection}{\numberline {3.1.3}Pour une valeur raisonnable de $m$}{4}}
\@writefile{toc}{\contentsline {subsection}{\numberline {3.2}Variation en fonction de $m$}{4}}
\@writefile{lof}{\contentsline {figure}{\numberline {3}{\ignorespaces Variation de la taille des fichiers}}{5}}
\newlabel{fig:tresGrand}{{3}{5}}
\@writefile{toc}{\contentsline {subsubsection}{\numberline {3.2.1}Variation en fonction de $t$}{5}}
\@writefile{lof}{\contentsline {figure}{\numberline {4}{\ignorespaces Variation du taux de compression des fichiers}}{6}}
\newlabel{}{{4}{6}}
\@writefile{toc}{\contentsline {subsection}{\numberline {3.3}Temps d'ex\IeC {\'e}cution}{6}}
\@writefile{toc}{\contentsline {section}{\numberline {4}Conclusion}{6}}
\@writefile{lof}{\contentsline {figure}{\numberline {5}{\ignorespaces Variation de la taille des fichiers}}{7}}
\newlabel{fig:raisonnable}{{5}{7}}
\@writefile{lof}{\contentsline {figure}{\numberline {6}{\ignorespaces Variation de la taille des fichiers}}{8}}
\newlabel{fig:var_m}{{6}{8}}
\@writefile{lof}{\contentsline {figure}{\numberline {7}{\ignorespaces Variation de la taille des fichiers}}{8}}
\newlabel{fig:t}{{7}{8}}
\@writefile{lof}{\contentsline {figure}{\numberline {8}{\ignorespaces Variation du temps d'ex\IeC {\'e}cution du logiciel}}{9}}
\newlabel{fig:temps}{{8}{9}}
